<?xml version="1.0" standalone="no"?>
<!DOCTYPE svg PUBLIC "-//W3C//DTD SVG 20010904//EN"
 "http://www.w3.org/TR/2001/REC-SVG-20010904/DTD/svg10.dtd">
<svg version="1.0" xmlns="http://www.w3.org/2000/svg"
 width="545.000000pt" height="498.000000pt" viewBox="0 0 545.000000 498.000000"
 preserveAspectRatio="xMidYMid meet">
<metadata>
Created by potrace 1.13, written by Peter Selinger 2001-2015
</metadata>
<g transform="translate(0.000000,498.000000) scale(0.100000,-0.100000)"
fill="#000000" stroke="none">
<path d="M2200 4913 c-17 -85 -29 -122 -63 -186 -79 -151 -251 -255 -476 -288
-119 -17 -406 -7 -546 20 -100 19 -241 52 -276 66 -11 4 -48 -69 -144 -286
-72 -161 -131 -294 -132 -298 -2 -3 37 -28 85 -56 86 -50 247 -195 301 -272
l22 -33 -480 0 -481 0 0 -105 0 -105 2720 0 2720 0 0 105 0 105 -472 2 -473 3
193 194 c105 107 192 196 192 199 0 13 -229 510 -253 549 -5 8 -38 3 -114 -18
-463 -125 -874 -91 -1073 88 -93 83 -160 215 -160 313 0 28 -4 50 -9 50 -5 0
-33 -16 -62 -36 -93 -63 -233 -124 -332 -145 -228 -47 -421 -3 -592 135 -38
31 -73 56 -77 56 -4 0 -12 -26 -18 -57z m208 -138 c86 -43 192 -65 308 -65
160 0 288 33 440 114 l82 44 12 -45 c26 -106 102 -221 191 -287 78 -59 150
-92 268 -124 88 -23 113 -26 291 -26 207 0 299 11 488 60 51 13 98 24 105 24
15 0 47 -63 158 -308 l79 -173 -158 -157 c-87 -86 -182 -188 -211 -227 l-53
-70 496 -3 496 -2 0 -50 0 -50 -2670 0 -2670 0 0 50 0 50 506 2 506 3 -70 90
c-86 112 -207 230 -290 283 -35 22 -68 42 -74 44 -9 3 192 477 213 502 4 4 56
-3 116 -18 180 -43 315 -59 488 -60 180 -1 269 12 394 56 145 51 248 130 321
244 25 40 39 77 76 192 2 9 21 0 56 -26 29 -22 77 -52 106 -67z"/>
<path d="M946 3175 c-52 -18 -104 -71 -117 -117 -22 -82 23 -147 167 -241 76
-50 98 -79 98 -132 0 -75 -61 -125 -154 -125 -85 0 -170 59 -170 116 0 25 -15
33 -23 12 -6 -19 11 -59 36 -87 50 -54 165 -77 248 -50 79 27 138 102 139 174
0 67 -38 115 -150 190 -127 85 -151 119 -127 177 21 50 65 72 142 71 54 -1 58
0 40 13 -24 18 -78 17 -129 -1z"/>
<path d="M1418 3176 c-88 -32 -134 -95 -125 -173 6 -59 41 -101 140 -166 46
-30 94 -68 106 -82 29 -37 28 -103 -1 -140 -75 -96 -282 -59 -300 54 -4 25
-21 30 -26 6 -6 -28 44 -91 90 -114 95 -45 245 -15 299 61 24 33 35 99 25 151
-8 43 -59 95 -146 146 -82 49 -130 101 -130 141 0 64 87 119 165 104 21 -4 35
-2 35 4 0 25 -73 29 -132 8z"/>
<path d="M3192 3154 c-10 -22 -49 -112 -87 -201 l-68 -163 -43 0 c-24 0 -44
-4 -44 -10 0 -5 18 -10 39 -10 l40 0 -45 -106 c-50 -120 -48 -114 -31 -114 6
0 32 50 56 110 l43 111 126 -3 126 -3 38 -94 c21 -52 38 -101 38 -108 0 -9 16
-13 54 -13 l55 0 -23 53 c-13 28 -70 167 -126 307 -57 140 -109 261 -116 269
-10 11 -16 7 -32 -25z m40 -211 c26 -65 50 -126 54 -135 6 -17 -4 -18 -109
-18 l-115 0 56 135 c32 74 59 135 62 135 3 0 26 -53 52 -117z"/>
<path d="M40 2865 c0 -203 4 -315 10 -315 6 0 10 92 10 255 0 140 3 255 6 255
3 0 91 -53 195 -117 l189 -118 0 -138 c0 -91 4 -137 10 -135 14 4 15 621 1
626 -7 2 -11 -44 -13 -122 l-3 -126 -199 125 c-109 69 -200 125 -202 125 -2 0
-4 -142 -4 -315z"/>
<path d="M2705 3173 l-150 -3 0 -310 0 -310 173 0 c108 0 172 4 172 10 0 12 5
11 -137 10 l-113 -1 0 190 0 190 133 3 c79 2 132 7 132 13 0 6 -53 11 -132 13
l-133 3 0 84 0 85 121 0 c92 0 120 3 117 13 -5 14 6 14 -183 10z"/>
<path d="M3484 3171 c-15 -15 6 -21 76 -21 l80 0 0 -300 0 -300 48 0 47 0 -3
300 -3 300 86 0 c58 0 85 4 83 11 -3 10 -404 20 -414 10z"/>
<path d="M4360 3065 l0 -115 -161 0 -162 0 6 110 6 110 -50 0 -49 0 0 -310 0
-310 48 0 48 0 -4 190 -5 190 162 0 161 0 0 -190 c0 -120 4 -190 10 -190 6 0
10 112 10 315 0 203 -4 315 -10 315 -6 0 -10 -45 -10 -115z"/>
<path d="M4638 3173 l-148 -4 0 -309 0 -310 171 0 c126 0 170 3 167 12 -3 8
-40 11 -126 9 l-122 -2 0 190 0 191 135 0 c113 0 135 2 135 15 0 13 -22 15
-135 15 l-135 0 0 85 0 85 121 0 c92 0 120 3 117 13 -5 14 6 14 -180 10z"/>
<path d="M590 2860 l0 -310 45 0 45 0 0 310 0 310 -45 0 -45 0 0 -310z"/>
<path d="M1730 2860 l0 -310 45 0 45 0 0 310 0 310 -45 0 -45 0 0 -310z"/>
<path d="M2170 2860 l0 -310 171 0 c126 0 170 3 167 12 -3 8 -40 11 -126 9
l-123 -2 3 300 3 301 -47 0 -48 0 0 -310z"/>
<path d="M4925 2861 l0 -311 48 0 47 0 0 301 0 302 69 -6 c77 -6 149 -38 193
-84 78 -82 77 -214 -2 -293 -49 -49 -86 -60 -105 -33 -33 47 -117 54 -131 11
-11 -35 37 -70 93 -67 42 3 45 1 81 -46 39 -53 119 -102 148 -91 23 9 7 26
-26 26 -19 0 -43 12 -65 31 -43 38 -74 91 -56 97 7 2 31 18 54 36 111 83 118
256 16 353 -61 58 -120 77 -249 81 l-115 4 0 -311z"/>
<path d="M3805 2233 c-38 -9 -55 -34 -55 -80 0 -40 -2 -43 -26 -43 -33 0 -30
-33 4 -38 22 -3 22 -6 22 -153 0 -142 1 -149 20 -149 19 0 20 7 20 150 l0 150
45 0 c38 0 45 3 45 20 0 17 -7 20 -45 20 -44 0 -45 1 -45 33 0 44 15 57 67 57
30 0 43 4 43 14 0 23 -42 32 -95 19z"/>
<path d="M50 2001 c0 -220 1 -231 19 -231 17 0 19 10 22 119 4 129 11 146 71
177 46 24 118 14 140 -20 4 -6 8 -71 8 -143 l0 -133 25 0 25 0 0 133 c0 85 -5
141 -13 157 -35 70 -184 79 -237 15 -14 -17 -15 -11 -20 66 -4 69 -8 84 -22
87 -17 3 -18 -13 -18 -227z"/>
<path d="M1990 2171 l0 -58 -48 5 c-92 8 -179 -35 -208 -105 -30 -72 -5 -193
48 -227 56 -36 127 -32 178 10 l30 26 0 -26 c0 -19 5 -26 20 -26 19 0 20 7 20
230 0 223 -1 230 -20 230 -18 0 -20 -7 -20 -59z m-2 -176 c5 -132 -33 -195
-118 -195 -41 0 -67 15 -83 48 -33 65 -27 144 15 189 32 35 54 42 123 40 l60
-2 3 -80z"/>
<path d="M5350 2171 l0 -58 -48 5 c-92 8 -179 -35 -208 -105 -30 -72 -5 -193
48 -227 56 -36 127 -32 178 10 l30 26 0 -26 c0 -19 5 -26 20 -26 19 0 20 7 20
230 0 223 -1 230 -20 230 -18 0 -20 -7 -20 -59z m-2 -176 c5 -132 -33 -195
-118 -195 -41 0 -67 15 -83 48 -37 73 -26 150 28 200 34 31 39 33 103 30 l67
-3 3 -80z"/>
<path d="M4157 2173 c-4 -3 -7 -19 -7 -35 0 -21 -5 -28 -20 -28 -12 0 -20 -7
-20 -16 0 -9 9 -18 20 -21 19 -5 20 -14 20 -130 0 -68 5 -133 10 -143 21 -40
131 -45 138 -7 3 13 -3 15 -32 10 -60 -10 -66 3 -66 143 l0 123 47 3 c36 2 49
7 51 21 3 14 -4 17 -47 17 l-51 0 0 35 c0 27 -4 35 -18 35 -10 0 -22 -3 -25
-7z"/>
<path d="M1267 2106 c-20 -8 -44 -19 -52 -26 -13 -10 -15 -9 -15 9 0 16 -6 21
-25 21 l-25 0 0 -171 0 -170 23 3 c21 3 22 8 27 123 5 127 14 155 57 174 39
18 98 13 126 -10 26 -20 26 -23 29 -152 3 -128 4 -132 26 -135 22 -3 22 -3 22
136 0 159 -8 179 -78 200 -49 15 -67 15 -115 -2z"/>
<path d="M2396 2110 c-64 -20 -99 -78 -100 -166 0 -118 58 -176 175 -176 60 0
78 9 79 39 0 8 -9 9 -32 2 -79 -22 -138 1 -163 63 -29 74 -12 160 39 194 21
13 41 16 91 11 57 -4 65 -3 65 13 0 28 -89 39 -154 20z"/>
<path d="M2910 2113 c-8 -3 -27 -17 -42 -31 l-28 -26 0 27 c0 20 -5 27 -20 27
-19 0 -20 -7 -20 -170 0 -163 1 -170 20 -170 19 0 20 7 20 105 0 69 5 118 14
140 16 37 67 70 98 62 15 -4 19 -1 16 16 -3 22 -29 31 -58 20z"/>
<path d="M4635 2106 c-125 -56 -128 -261 -5 -324 38 -20 55 -23 104 -18 60 6
86 18 86 42 0 10 -8 10 -32 3 -50 -14 -121 -11 -146 7 -30 21 -52 66 -52 109
l0 35 125 0 125 0 0 31 c0 94 -112 156 -205 115z"/>
<path d="M659 2104 c-10 -3 -19 -14 -22 -25 -4 -16 -2 -19 11 -14 9 3 45 9 79
12 70 7 113 -12 113 -47 0 -27 -30 -44 -127 -75 -92 -29 -113 -49 -113 -105 0
-47 34 -80 88 -87 59 -8 112 4 112 25 0 15 -9 17 -63 14 -49 -3 -68 0 -80 13
-39 38 -2 85 91 116 37 12 73 24 80 27 9 3 12 -19 12 -93 0 -94 0 -96 23 -93
22 3 22 5 22 145 0 135 -1 144 -23 165 -19 20 -34 23 -105 25 -45 1 -89 -1
-98 -3z"/>
<path d="M3238 2104 c-15 -5 -33 -33 -25 -40 2 -2 19 1 38 6 83 24 169 3 169
-40 0 -27 -30 -44 -128 -75 -90 -28 -116 -52 -114 -107 1 -49 40 -80 105 -86
55 -4 97 9 97 31 0 8 -18 11 -63 9 -49 -3 -68 0 -80 13 -39 38 -2 85 91 116
37 12 73 24 80 27 9 3 12 -19 12 -93 0 -94 0 -96 23 -93 22 3 22 5 22 145 0
135 -1 144 -23 165 -19 20 -34 23 -105 25 -45 1 -89 -1 -99 -3z"/>
<path d="M10 1505 l0 -105 480 0 481 0 -12 -22 c-7 -13 -62 -72 -123 -133
-104 -104 -121 -116 -273 -200 -2 -1 256 -587 261 -592 1 -2 34 6 72 17 38 11
130 32 204 47 119 23 160 27 350 27 192 1 225 -1 304 -22 245 -62 394 -208
442 -433 10 -43 21 -79 25 -79 4 0 33 21 64 46 128 104 234 149 380 160 185
15 378 -42 560 -165 l60 -41 6 70 c19 199 178 366 409 429 214 59 536 42 844
-44 49 -14 91 -24 92 -22 10 10 237 508 248 543 5 17 -27 54 -186 215 l-193
194 473 3 472 2 0 105 0 105 -2720 0 -2720 0 0 -105z m5390 -5 l0 -50 -496 -2
-496 -3 53 -70 c29 -38 124 -141 211 -227 l159 -158 -69 -152 c-39 -84 -89
-194 -112 -244 l-43 -91 -91 23 c-656 171 -1140 34 -1261 -357 l-18 -56 -102
52 c-157 80 -240 100 -415 99 -131 0 -153 -2 -228 -27 -51 -18 -113 -49 -162
-82 l-78 -53 -25 74 c-52 156 -144 262 -290 334 -237 116 -591 127 -981 30
-44 -11 -85 -20 -92 -20 -10 0 -57 100 -208 441 l-25 57 81 52 c96 62 209 173
297 290 l64 85 -507 3 -506 2 0 50 0 50 2670 0 2670 0 0 -50z"/>
</g>
</svg>
